[
    {
        "sass_dir": "sass",
        "css_dir": "css",
        "img_dir": "img",
        "js_dir": "js",
        "fonts_dir": "fonts",
        "output_style": "expanded",
        "relative_assets": false,
        "debug": false,
        "comments": false
    }
]